<svg xmlns="http://www.w3.org/2000/svg" width="354.73" height="47.288" viewBox="0 0 354.73 47.288">
  <path id="Path_2211" data-name="Path 2211" d="M-231.657-38.834c4.551-1.286,8.9-2.325,12.663-3.116-6.579,6.529-12.811,13.355-19.637,21.171l.049.544,5.293,4.254.495-.049c5.243-6.777,10.338-11.426,17.411-11.426,4.105,0,6.727,2.77,6.727,6.232s-.89,5.787-3.809,7.172c-1.336-3.462-4.155-7.321-10.041-7.321-4.007,0-7.568,3.66-7.568,6.876,0,5.639,4.946,8.063,10.783,8.063,11.426,0,18.2-5.095,18.2-14.1,0-7.667-5-12.762-12.465-12.762a12.226,12.226,0,0,0-6.183,1.286c4.105-4.056,6.875-6.579,10.882-10.536a3.432,3.432,0,0,0,.89-2.572,4.46,4.46,0,0,0-4.551-4.3c-5.392.693-13.009,1.88-20.528,3.561l-.3.445,1.286,6.331Zm13.009,26.364a6.578,6.578,0,0,1-1.583.148c-2.523,0-3.66-.94-3.66-1.979,0-.89.89-1.286,1.88-1.286A3.767,3.767,0,0,1-218.648-12.47Zm30.49-26.364c4.551-1.286,8.9-2.325,12.663-3.116-6.579,6.529-12.811,13.355-19.637,21.171l.049.544,5.293,4.254.495-.049c5.243-6.777,10.338-11.426,17.411-11.426,4.105,0,6.727,2.77,6.727,6.232s-.89,5.787-3.809,7.172c-1.335-3.462-4.155-7.321-10.041-7.321-4.007,0-7.568,3.66-7.568,6.876,0,5.639,4.946,8.063,10.783,8.063,11.426,0,18.2-5.095,18.2-14.1,0-7.667-5-12.762-12.465-12.762a12.226,12.226,0,0,0-6.183,1.286c4.106-4.056,6.876-6.579,10.882-10.536a3.432,3.432,0,0,0,.89-2.572,4.459,4.459,0,0,0-4.551-4.3c-5.392.693-13.009,1.88-20.528,3.561l-.3.445,1.286,6.331ZM-175.15-12.47a6.578,6.578,0,0,1-1.583.148c-2.523,0-3.66-.94-3.66-1.979,0-.89.89-1.286,1.88-1.286A3.767,3.767,0,0,1-175.15-12.47Zm58.222-29.975a31.248,31.248,0,0,1,4.9,5.342h.495l2.721-1.929.049-.495a31.721,31.721,0,0,0-5.045-5.243l-.495.049-2.572,1.83Zm4.65-3.116a29.767,29.767,0,0,1,4.847,5.144h.495l2.572-1.88.049-.495a29.927,29.927,0,0,0-4.9-5.095l-.495.049-2.523,1.83Zm-24.781,21.368a79.027,79.027,0,0,1-14,7.964l-.148.495,3.215,6.134.495.148a78.157,78.157,0,0,0,9.448-5.639l2.077,5.045c.346.841.594,1.039,1.286,1.138a39.156,39.156,0,0,0,5.491.643c6.529,0,10.882-2.869,10.882-7.964,0-4.106-1.286-6.826-5.936-10.14-4.106-2.869-5.045-3.66-5.045-4.65a5.353,5.353,0,0,1,2.127-3.364,7.757,7.757,0,0,1,4.65-2.176,7.657,7.657,0,0,1,1.088-.049,6.638,6.638,0,0,1,1.039.049l.4-.346,1.484-6.282-.2-.445a35.3,35.3,0,0,1-15.284-5.787l-.544-.049-4.2,4.353-.049.445a26.578,26.578,0,0,0,8.26,5.342c-5.095,4.056-6.381,6.727-6.381,9.2,0,2.374,2.176,4.9,5.54,7.519,3.413,2.721,4.7,3.809,4.7,5.144,0,1.484-1.336,2.325-4.2,2.325a40.591,40.591,0,0,1-6.035-.742,4.915,4.915,0,0,0,1.335-.989,1.076,1.076,0,0,0,.346-.791,3.145,3.145,0,0,0-.148-.742Zm18.648-2.671a21.755,21.755,0,0,1,6.282,12.317l.445.2,6.381-3.116.247-.445a23.094,23.094,0,0,0-6.826-11.871l-.544-.049-5.886,2.473Zm64.3,2.226H-59.7l-.346.346v5.837l-.049,7.914c-.049,4.5.94,4.9,5.837,4.9,4.551,0,5.54-.3,6.974-1.731C-46.193-8.463-45.9-10.1-45.7-12.816c.049-.445.1-1.187.1-1.533,0-.3-.1-.4-.495-.594l-4.551-2.176c-.3,4.847-.643,5.392-1.88,5.392-1.088,0-1.237-.1-1.237-1.138V-24.242Zm-21.715,2.721h6.43v-4.452h16.719v4.452h6.579l-.247-4.9v-.94l.148-3.858-.346-.346-5.837.148H-69.837l-5.491-.148-.4.346.148,3.908v.89Zm-6.084-2.028,4.946.148.3-.247v-4.946l-.3-.247-4.946.148h-3.908l-4.946-.148-.3.3v4.847l.346.3,4.9-.148Zm0-7.024,4.946.148.3-.247v-4.946l-.3-.247-4.946.148h-3.908l-4.946-.148-.3.3v4.847l.346.3,4.9-.148Zm0-14.394,4.946.148.3-.247v-4.946l-.3-.247-4.946.148h-3.908l-4.946-.148-.3.3v4.847l.346.3,4.9-.148Zm.247,7.37,5.688.148.3-.247v-5.293l-.3-.247-5.688.148h-5.985l-5.54-.148-.3.3v5.194l.346.3,5.491-.148Zm15.087-1.533-6.48-.148-.3.3v5.293l.346.3,6.43-.148h11.228l6.529.148.3-.247v-5.392l-.3-.247-6.529.148h-2.424V-42.1h4.9l6.529.148.3-.247v-5.392l-.3-.247-6.529.148h-4.9v-4.3l-.346-.346h-6.232l-.346.4v4.254h-3.364l-6.529-.148-.3.3v5.293l.346.3,6.48-.148h3.364v2.572Zm-19.39,26.315v-3.71h3.908v3.71Zm3.908,7.172h5.985l-.049-2.819L-73.052-5.4a.984.984,0,0,0,.791.346,1.757,1.757,0,0,0,.495-.1c7.123-2.77,9.794-7.964,9.794-17.758V-24l-.346-.4h-5.688l-.4.3c.049.791.049,1.484.049,2.176,0,6.579-1.632,9.744-7.815,11.97l-.1-4.254v-2.622l.1-4.946-.3-.346-5.936.148h-3.561l-5.491-.148-.247.346.148,4.946v2.473l-.247,8.9h5.837V-8.167h3.908Zm62.374-.594a1.868,1.868,0,0,0,1.336.346c4.8-2.275,8.656-6.777,10.981-11.525,1.286.841,2.77,1.781,4.3,2.968l.495-.2L.9-21.027l-.1-.544a48.72,48.72,0,0,0-5.936-3.611,32.3,32.3,0,0,0,.3-5c0-.94,0-1.88-.049-2.918l-.247-.445-6.628-.94-.3.346c.049.94.1,1.83.1,2.671q0,1.781-.148,3.265a44.678,44.678,0,0,0-9.349-2.176c2.077-5.095,3.759-9,5.095-12.861a6.269,6.269,0,0,0,.346-1.781c0-2.176-1.583-3.71-4.353-3.71a10.1,10.1,0,0,0-1.682.148c-3.017.495-7.469,1.237-12.91,2.226l-.247.445,1.385,6.183.445.346c3.116-.594,5.837-1.138,8.063-1.583-1.336,4.007-2.127,6.331-3.66,10.239-9.794,1.237-14.493,6.035-14.493,13.256,0,3.858,2.523,7.766,7.073,7.766a8.382,8.382,0,0,0,7.667-4.056c1.286-1.929,2.523-4.946,4.749-10.338a30.049,30.049,0,0,1,10.19,2.819A18.751,18.751,0,0,1-25.221-10.59ZM-31.75-24c-1.237,3.017-1.88,4.4-2.622,5.886-.594,1.088-1.187,1.533-1.83,1.533-.594,0-.89-.495-.89-1.533A6.168,6.168,0,0,1-31.75-24ZM48.689-10.937a37.983,37.983,0,0,1-8.854-7.024c3.116-5.392,4.452-11.624,4.946-17.758l3.017.049.4-.346v-5.54l-.4-.346-6.678.148H34.047c.94-2.473,1.781-5.045,2.572-7.766l-.1-.544-6.233-1.979-.4.1c-1.484,6.876-4.155,13.9-7.766,19.093v-.594l-.3-.3-4.5.1H13.421v-4.007h3.561l6.529.148.3-.247v-5.738l-.3-.247-6.529.148H15.943v-8.112l-.346-.346H9.612l-.346.346v8.112H7.485L.956-43.731l-.3.3V-37.8l.346.3,5.787-.148v2.819c0,11.08-1.979,18.45-6.777,25.474l4.4,3.561a.889.889,0,0,0,.445.2.6.6,0,0,0,.445-.3,43.7,43.7,0,0,0,7.815-21.863H15.4c-.2,10.536-.544,13.306-1.237,14.691-.346.643-.742.692-1.731.791-.544.049-1.138.049-1.979.049H9.365l2.176,5.936c.2.495.4.643.989.643h1.138c2.671,0,4.8-.692,5.985-2.077a7.3,7.3,0,0,0,1.039-1.731l4.4,4.106a.689.689,0,0,0,.544.247,1.179,1.179,0,0,0,.594-.2,36.645,36.645,0,0,0,9.3-6.974,35.491,35.491,0,0,0,6.826,6.48c.4.3.594.445.791.445.148,0,.3-.1.495-.3Zm-23.5-16.719a1.188,1.188,0,0,0,.742.3,1.032,1.032,0,0,0,.841-.495c.346-.495.693-.989,1.039-1.533a40.467,40.467,0,0,0,3.957,11.476C28.853-14.4,25-12.025,20.89-10.046a17.02,17.02,0,0,0,.692-3.908c.4-5.342.445-10.734.495-16.125ZM38-35.817a36.8,36.8,0,0,1-2.325,11.575,42.115,42.115,0,0,1-3.067-11.575ZM72.283-12.668c-2.077-.148-4.106-.3-5.639-.495-.692-.1-1.286-.2-1.88-.3v-3.858h.791l4.9.148.3-.247V-22.66l-.3-.247-4.9.148h-.791v-3.017h1.187l5.886.148.3-.247v-5.144l-.3-.247-5.886.148H55.218l-5.738-.148-.3.3v5.045l.346.3,5.688-.148h3.166v8.706a18.48,18.48,0,0,1-1.731-2.622c.1-1.088.2-2.226.247-3.66l-.445-.346-4.8-.989-.4.346c0,6.826-1.088,11.377-2.819,14.839L52.6-5.4c.148.1.247.2.4.2s.3-.1.495-.3a29.877,29.877,0,0,0,2.424-6.925c1.979,2.523,4.4,4.007,8.607,5.194C68.524-6.089,75.251-6.04,79.8-5.99c1.929.049,4.2.049,6.529.049s4.7,0,6.727-.049c.544,0,.692-.049.89-.495l2.918-6.43c-1.434.1-2.77.148-4.106.247l2.869-3.215-.1-.495a32.188,32.188,0,0,0-6.826-3.561l4.748.1.445-.346-.148-6.628V-37.449l.148-5.54-.4-.4-6.727.148h-.544c.445-.692.841-1.434,1.237-2.176H89.5l6.529.148.3-.247v-5l-.3-.247-6.529.148H78.466l-6.529-.148-.3.3v4.9l.346.3,6.48-.148h2.127c-.2.742-.445,1.434-.692,2.176l-5.936-.148-.346.3.148,5.392v10.635l-.148,6.876.346.346,4.452-.1a30.481,30.481,0,0,1-8.854,4.056Zm3.66.148a31.257,31.257,0,0,0,7.914-4.4,48.223,48.223,0,0,1,7.469,4.3c-3.314.1-6.381.2-9.349.2H80.049C78.763-12.421,77.378-12.47,75.943-12.519Zm10.635-7.469-2.721,2.523L80.4-19.989ZM79.851-36.707v-1.979h7.568v1.979Zm7.568,6.035H79.851v-1.979h7.568Zm0,6.084H79.851v-2.028h7.568Zm-17.56-8.458-.148-7.073v-4.452l.148-5.589-.346-.346-6.777.148H58.186l-6.777-.148-.346.346.148,5.342v4.946l-.148,6.826.346.346,6.777-.148h4.551l6.777.148Zm-12.465-4.2v-2.275H63.33v2.275Zm0-8.706H63.33v2.275H57.394Zm57.814-1.685h-7.766v26.463h7.766ZM111.35-17.123a4.792,4.792,0,0,0-4.8,4.749,4.792,4.792,0,0,0,4.8,4.749,4.782,4.782,0,0,0,4.749-4.749A4.782,4.782,0,0,0,111.35-17.123Z" transform="translate(238.632 52.338)" fill="#fff"/>
</svg>
